CPU/cpu_tb.vcd
$date
	Mon Jan 27 12:35:46 2025
$end
$version
	Icarus Verilog
$end
$timescale
	1ps
$end
$scope module cpu_tb $end
$var reg 1 ! CLK $end
$var reg 1 " RST $end
$scope module uut $end
$var wire 1 ! CLK $end
$var wire 1 # EX_MEM_WRITE_in $end
$var wire 1 " RST $end
$var wire 1 $ WB_WRITE_ENABLE_out $end
$var wire 32 % WB_WRITE_DATA_out [31:0] $end
$var wire 5 & WB_RD_out [4:0] $end
$var wire 32 ' NEXT_PC_in [31:0] $end
$var wire 1 ( MEM_WRITE_ENABLE_out $end
$var wire 1 ) MEM_WRITE_ENABLE_in $end
$var wire 5 * MEM_RD_out [4:0] $end
$var wire 5 + MEM_RD_in [4:0] $end
$var wire 32 , MEM_JAL_SELECTED_out [31:0] $end
$var wire 32 - MEM_JAL_SELECTED_in [31:0] $end
$var wire 3 . MEM_FUNC3_out [2:0] $end
$var wire 3 / MEM_FUNC3_in [2:0] $end
$var wire 32 0 MEM_DATA_OUT_out [31:0] $end
$var wire 32 1 MEM_DATA_OUT_in [31:0] $end
$var wire 1 2 MEM_DATA_MEM_SELECT_out $end
$var wire 1 3 MEM_DATA_MEM_SELECT_in $end
$var wire 32 4 IF_PC_out [31:0] $end
$var wire 32 5 IF_PC_in [31:0] $end
$var wire 32 6 IF_PC_PLUS4_out [31:0] $end
$var wire 32 7 IF_PC_PLUS4_in [31:0] $end
$var wire 32 8 IF_INSTRUCTION_out [31:0] $end
$var wire 32 9 IF_INSTRUCTION_in [31:0] $end
$var wire 1 : ID_WRITE_ENABLE_out $end
$var wire 1 ; ID_WRITE_ENABLE_in $end
$var wire 32 < ID_READ_DATA2_out [31:0] $end
$var wire 32 = ID_READ_DATA2_in [31:0] $end
$var wire 32 > ID_READ_DATA1_out [31:0] $end
$var wire 32 ? ID_READ_DATA1_in [31:0] $end
$var wire 5 @ ID_RD_out [4:0] $end
$var wire 5 A ID_RD_in [4:0] $end
$var wire 32 B ID_PC_out [31:0] $end
$var wire 32 C ID_PC_in [31:0] $end
$var wire 1 D ID_PC_SELECT_out $end
$var wire 1 E ID_PC_SELECT_in $end
$var wire 32 F ID_PC_PLUS4_out [31:0] $end
$var wire 32 G ID_PC_PLUS4_in [31:0] $end
$var wire 1 H ID_MEM_WRITE_out $end
$var wire 1 I ID_MEM_WRITE_in $end
$var wire 1 J ID_MEM_READ_out $end
$var wire 1 K ID_MEM_READ_in $end
$var wire 1 L ID_JUMP_out $end
$var wire 1 M ID_JUMP_in $end
$var wire 1 N ID_JAL_SELECT_out $end
$var wire 1 O ID_JAL_SELECT_in $end
$var wire 1 P ID_IMM_SELECT_out $end
$var wire 1 Q ID_IMM_SELECT_in $end
$var wire 32 R ID_IMMEDIATE_out [31:0] $end
$var wire 32 S ID_IMMEDIATE_in [31:0] $end
$var wire 3 T ID_FUNC3_out [2:0] $end
$var wire 3 U ID_FUNC3_in [2:0] $end
$var wire 1 V ID_DATA_MEM_SELECT_out $end
$var wire 1 W ID_DATA_MEM_SELECT_in $end
$var wire 1 X ID_BRANCH_out $end
$var wire 1 Y ID_BRANCH_in $end
$var wire 4 Z ID_ALU_CONTROL_out [3:0] $end
$var wire 4 [ ID_ALU_CONTROL_in [3:0] $end
$var wire 1 \ EX_WRITE_ENABLE_out $end
$var wire 1 ] EX_WRITE_ENABLE_in $end
$var wire 32 ^ EX_READ_DATA2_out [31:0] $end
$var wire 32 _ EX_READ_DATA2_in [31:0] $end
$var wire 5 ` EX_RD_out [4:0] $end
$var wire 5 a EX_RD_in [4:0] $end
$var wire 32 b EX_PC_TARGET_out [31:0] $end
$var wire 1 c EX_MEM_WRITE_out $end
$var wire 1 d EX_MEM_READ_out $end
$var wire 1 e EX_MEM_READ_in $end
$var wire 32 f EX_JAL_SELECTED_out [31:0] $end
$var wire 32 g EX_JAL_SELECTED_in [31:0] $end
$var wire 3 h EX_FUNC3_out [2:0] $end
$var wire 3 i EX_FUNC3_in [2:0] $end
$var wire 1 j EX_DATA_MEM_SELECT_out $end
$var wire 1 k EX_DATA_MEM_SELECT_in $end
$var wire 1 l EX_BRANCH_SELECT_out $end
$var wire 1 m EX $end
$scope module ex_mem $end
$var wire 1 ! CLK $end
$var wire 1 " RST $end
$var wire 1 \ EX_WRITE_ENABLE $end
$var wire 32 n EX_READ_DATA2 [31:0] $end
$var wire 5 o EX_RD [4:0] $end
$var wire 1 c EX_MEM_WRITE $end
$var wire 1 d EX_MEM_READ $end
$var wire 32 p EX_JAL_SELECTED [31:0] $end
$var wire 3 q EX_FUNC3 [2:0] $end
$var wire 1 j EX_DATA_MEM_SELECT $end
$var reg 1 k MEM_DATA_MEM_SELECT $end
$var reg 3 r MEM_FUNC3 [2:0] $end
$var reg 32 s MEM_JAL_SELECTED [31:0] $end
$var reg 1 e MEM_MEM_READ $end
$var reg 1 m MEM_MEM_WRITE $end
$var reg 5 t MEM_RD [4:0] $end
$var reg 32 u MEM_READ_DATA2 [31:0] $end
$var reg 1 ] MEM_WRITE_ENABLE $end
$upscope $end
$scope module ex_stage $end
$var wire 1 ! CLK $end
$var wire 1 j EX_DATA_MEM_SELECT $end
$var wire 3 v EX_FUNC3 [2:0] $end
$var wire 1 d EX_MEM_READ $end
$var wire 1 c EX_MEM_WRITE $end
$var wire 5 w EX_RD [4:0] $end
$var wire 32 x EX_READ_DATA2 [31:0] $end
$var wire 1 \ EX_WRITE_ENABLE $end
$var wire 1 " RST $end
$var wire 32 y PC_SELECTED [31:0] $end
$var wire 32 z IMM_SELECTED [31:0] $end
$var wire 1 ; ID_WRITE_ENABLE $end
$var wire 32 { ID_READ_DATA2 [31:0] $end
$var wire 32 | ID_READ_DATA1 [31:0] $end
$var wire 5 } ID_RD [4:0] $end
$var wire 1 E ID_PC_SELECT $end
$var wire 32 ~ ID_PC_PLUS4 [31:0] $end
$var wire 32 !" ID_PC [31:0] $end
$var wire 1 I ID_MEM_WRITE $end
$var wire 1 K ID_MEM_READ $end
$var wire 1 M ID_JUMP $end
$var wire 1 O ID_JAL_SELECT $end
$var wire 1 Q ID_IMM_SELECT $end
$var wire 32 "" ID_IMMEDIATE [31:0] $end
$var wire 3 #" ID_FUNC3 [2:0] $end
$var wire 1 W ID_DATA_MEM_SELECT $end
$var wire 1 Y ID_BRANCH $end
$var wire 4 $" ID_ALU_CONTROL [3:0] $end
$var wire 32 %" EX_PC_TARGET [31:0] $end
$var wire 32 &" EX_JAL_SELECTED [31:0] $end
$var wire 1 l EX_BRANCH_SELECT $end
$var wire 32 '" ALU_RESULT [31:0] $end
$scope module alu $end
$var wire 32 (" xor_out [31:0] $end
$var wire 32 )" subOut [31:0] $end
$var wire 32 *" set_less_than_unsigned_out [31:0] $end
$var wire 32 +" set_less_than_out [31:0] $end
$var wire 32 ," orOut [31:0] $end
$var wire 32 -" logical_shift_right_out [31:0] $end
$var wire 32 ." left_shift_out [31:0] $end
$var wire 32 /" arithmetic_shift_right_out [31:0] $end
$var wire 32 0" andOut [31:0] $end
$var wire 32 1" addOut [31:0] $end
$var wire 32 2" DATA2 [31:0] $end
$var wire 32 3" DATA1 [31:0] $end
$var wire 4 4" ALU_OPERATION [3:0] $end
$var reg 32 5" RESULT [31:0] $end
$scope module add_1 $end
$var wire 32 6" DATA2 [31:0] $end
$var wire 32 7" DATA1 [31:0] $end
$var reg 32 8" addOut [31:0] $end
$upscope $end
$scope module and_1 $end
$var wire 32 9" DATA2 [31:0] $end
$var wire 32 :" DATA1 [31:0] $end
$var reg 32 ;" andOut [31:0] $end
$upscope $end
$scope module left_shift $end
$var wire 32 <" DATA2 [31:0] $end
$var wire 32 =" DATA1 [31:0] $end
$var reg 32 >" left_shift_out [31:0] $end
$upscope $end
$scope module or_1 $end
$var wire 32 ?" DATA2 [31:0] $end
$var wire 32 @" DATA1 [31:0] $end
$var reg 32 A" orOut [31:0] $end
$upscope $end
$scope module set_less_than $end
$var wire 32 B" DATA2 [31:0] $end
$var wire 32 C" DATA1 [31:0] $end
$var reg 32 D" set_less_than_out [31:0] $end
$upscope $end
$scope module set_less_than_unsigned $end
$var wire 32 E" DATA2 [31:0] $end
$var wire 32 F" DATA1 [31:0] $end
$var reg 32 G" set_less_than_unsigned_out [31:0] $end
$upscope $end
$scope module shift_right_arithmetic $end
$var wire 32 H" arithmetic_shift_right_out [31:0] $end
$var wire 32 I" DATA2 [31:0] $end
$var wire 32 J" DATA1 [31:0] $end
$upscope $end
$scope module shift_right_logical $end
$var wire 32 K" logical_shift_right_out [31:0] $end
$var wire 32 L" DATA2 [31:0] $end
$var wire 32 M" DATA1 [31:0] $end
$upscope $end
$scope module sub_1 $end
$var wire 32 N" DATA2 [31:0] $end
$var wire 32 O" DATA1 [31:0] $end
$var reg 32 P" subOut [31:0] $end
$upscope $end
$scope module xor_1 $end
$var wire 32 Q" xor_out [31:0] $end
$var wire 32 R" DATA2 [31:0] $end
$var wire 32 S" DATA1 [31:0] $end
$upscope $end
$upscope $end
$scope module branch_control_unit $end
$var wire 32 T" ALU_RESULT [31:0] $end
$var wire 32 U" OUT2 [31:0] $end
$var wire 32 V" OUT1 [31:0] $end
$var wire 1 M JUMP $end
$var wire 3 W" FUNC3 [2:0] $end
$var wire 1 Y BRANCH $end
$var reg 1 l BRANCH_SELECT $end
$var reg 32 X" TARGET_ADDRESS [31:0] $end
$upscope $end
$scope module imm_select $end
$var wire 1 Q SEL $end
$var wire 32 Y" OUT [31:0] $end
$var wire 32 Z" IN1 [31:0] $end
$var wire 32 [" IN0 [31:0] $end
$upscope $end
$scope module jal_select $end
$var wire 32 \" IN0 [31:0] $end
$var wire 1 O SEL $end
$var wire 32 ]" OUT [31:0] $end
$var wire 32 ^" IN1 [31:0] $end
$upscope $end
$scope module pc_select $end
$var wire 1 E SEL $end
$var wire 32 _" OUT [31:0] $end
$var wire 32 `" IN1 [31:0] $end
$var wire 32 a" IN0 [31:0] $end
$upscope $end
$upscope $end
$scope module id_ex $end
$var wire 1 ! CLK $end
$var wire 1 " RST $end
$var wire 1 : ID_WRITE_ENABLE $end
$var wire 32 b" ID_READ_DATA2 [31:0] $end
$var wire 32 c" ID_READ_DATA1 [31:0] $end
$var wire 5 d" ID_RD [4:0] $end
$var wire 1 D ID_PC_SELECT $end
$var wire 32 e" ID_PC_PLUS4 [31:0] $end
$var wire 32 f" ID_PC [31:0] $end
$var wire 1 H ID_MEM_WRITE $end
$var wire 1 J ID_MEM_READ $end
$var wire 1 L ID_JUMP $end
$var wire 1 N ID_JAL_SELECT $end
$var wire 1 P ID_IMM_SELECT $end
$var wire 32 g" ID_IMMEDIATE [31:0] $end
$var wire 3 h" ID_FUNC3 [2:0] $end
$var wire 1 V ID_DATA_MEM_SELECT $end
$var wire 1 X ID_BRANCH $end
$var wire 4 i" ID_ALU_CONTROL [3:0] $end
$var reg 4 j" EX_ALU_CONTROL [3:0] $end
$var reg 1 Y EX_BRANCH $end
$var reg 1 W EX_DATA_MEM_SELECT $end
$var reg 3 k" EX_FUNC3 [2:0] $end
$var reg 32 l" EX_IMMEDIATE [31:0] $end
$var reg 1 Q EX_IMM_SELECT $end
$var reg 1 O EX_JAL_SELECT $end
$var reg 1 M EX_JUMP $end
$var reg 1 K EX_MEM_READ $end
$var reg 1 I EX_MEM_WRITE $end
$var reg 32 m" EX_PC [31:0] $end
$var reg 32 n" EX_PC_PLUS4 [31:0] $end
$var reg 1 E EX_PC_SELECT $end
$var reg 5 o" EX_RD [4:0] $end
$var reg 32 p" EX_READ_DATA1 [31:0] $end
$var reg 32 q" EX_READ_DATA2 [31:0] $end
$var reg 1 ; EX_WRITE_ENABLE $end
$upscope $end
$scope module id_stage $end
$var wire 1 ! CLK $end
$var wire 32 r" ID_PC [31:0] $end
$var wire 32 s" ID_PC_PLUS4 [31:0] $end
$var wire 1 " RST $end
$var wire 1 $ WB_WRITE_ENABLE $end
$var wire 32 t" WB_WRITE_DATA [31:0] $end
$var wire 5 u" WB_RD [4:0] $end
$var wire 3 v" IMM_PICK [2:0] $end
$var wire 32 w" IF_PC_PLUS4 [31:0] $end
$var wire 32 x" IF_PC [31:0] $end
$var wire 32 y" IF_INSTRUCTION [31:0] $end
$var wire 1 : ID_WRITE_ENABLE $end
$var wire 32 z" ID_READ_DATA2 [31:0] $end
$var wire 32 {" ID_READ_DATA1 [31:0] $end
$var wire 5 |" ID_RD [4:0] $end
$var wire 1 D ID_PC_SELECT $end
$var wire 1 H ID_MEM_WRITE $end
$var wire 1 J ID_MEM_READ $end
$var wire 1 L ID_JUMP $end
$var wire 1 N ID_JAL_SELECT $end
$var wire 1 P ID_IMM_SELECT $end
$var wire 32 }" ID_IMMEDIATE [31:0] $end
$var wire 3 ~" ID_FUNC3 [2:0] $end
$var wire 1 V ID_DATA_MEM_SELECT $end
$var wire 1 X ID_BRANCH $end
$var wire 4 !# ID_ALU_CONTROL [3:0] $end
$var wire 3 "# ALU_OP [2:0] $end
$scope module alu_control $end
$var wire 3 ## FUNC3 [2:0] $end
$var wire 7 $# FUNC7 [6:0] $end
$var wire 3 %# ALU_OP [2:0] $end
$var reg 4 &# ALU_CTRL [3:0] $end
$upscope $end
$scope module control_unit $end
$var wire 3 '# FUNC3 [2:0] $end
$var wire 7 (# FUNC7 [6:0] $end
$var wire 7 )# OPCODE [6:0] $end
$var reg 3 *# ALU_OP [2:0] $end
$var reg 1 X BRANCH $end
$var reg 1 V DATA_MEM_SELECT $end
$var reg 3 +# IMM_PICK [2:0] $end
$var reg 1 P IMM_SELECT $end
$var reg 1 N JAL_SELECT $end
$var reg 1 L JUMP $end
$var reg 1 J MEM_READ $end
$var reg 1 H MEM_WRITE $end
$var reg 1 D PC_SELECT $end
$var reg 1 : WRITE_EN $end
$upscope $end
$scope module imm_pick $end
$var wire 3 ,# IMM_PICK [2:0] $end
$var wire 32 -# INSTRUCTION [31:0] $end
$var reg 32 .# IMMEDIATE [31:0] $end
$upscope $end
$scope module register_file $end
$var wire 1 ! CLK $end
$var wire 5 /# READ_REG1 [4:0] $end
$var wire 5 0# READ_REG2 [4:0] $end
$var wire 1 " RST $end
$var wire 5 1# WRITE_REG [4:0] $end
$var wire 1 $ WRITE_ENABLE $end
$var wire 32 2# WRITE_DATA [31:0] $end
$var wire 32 3# READ_DATA2 [31:0] $end
$var wire 32 4# READ_DATA1 [31:0] $end
$var integer 32 5# i [31:0] $end
$upscope $end
$upscope $end
$scope module if_id $end
$var wire 1 ! CLK $end
$var wire 1 " RST $end
$var wire 32 6# IF_PC_PLUS4 [31:0] $end
$var wire 32 7# IF_PC [31:0] $end
$var wire 32 8# IF_INSTRUCTION [31:0] $end
$var reg 32 9# ID_INSTRUCTION [31:0] $end
$var reg 32 :# ID_PC [31:0] $end
$var reg 32 ;# ID_PC_PLUS4 [31:0] $end
$upscope $end
$scope module if_stage $end
$var wire 1 ! CLK $end
$var wire 32 <# IF_PC [31:0] $end
$var wire 32 =# IF_PC_PLUS4 [31:0] $end
$var wire 1 " RST $end
$var wire 32 ># PC_PLUS4 [31:0] $end
$var wire 32 ?# PC [31:0] $end
$var wire 32 @# NEXT_PC [31:0] $end
$var wire 32 A# IF_INSTRUCTION [31:0] $end
$scope module PC_INST $end
$var wire 1 ! CLK $end
$var wire 1 " RST $end
$var wire 32 B# PC_PLUS4 [31:0] $end
$var wire 32 C# NEXT_PC [31:0] $end
$var reg 32 D# PC [31:0] $end
$upscope $end
$scope module instruction_memory $end
$var wire 32 E# ADDRESS [31:0] $end
$var wire 32 F# INSTRUCTION [31:0] $end
$var parameter 32 G# MEM_SIZE $end
$upscope $end
$upscope $end
$scope module mem_stage $end
$var wire 1 ! CLK $end
$var wire 1 k EX_DATA_MEM_SELECT $end
$var wire 3 H# EX_FUNC3 [2:0] $end
$var wire 32 I# EX_JAL_SELECTED [31:0] $end
$var wire 1 e EX_MEM_READ $end
$var wire 1 # EX_MEM_WRITE $end
$var wire 5 J# EX_RD [4:0] $end
$var wire 32 K# EX_READ_DATA2 [31:0] $end
$var wire 1 ] EX_WRITE_ENABLE $end
$var wire 1 2 MEM_DATA_MEM_SELECT $end
$var wire 3 L# MEM_FUNC3 [2:0] $end
$var wire 32 M# MEM_JAL_SELECTED [31:0] $end
$var wire 5 N# MEM_RD [4:0] $end
$var wire 1 ( MEM_WRITE_ENABLE $end
$var wire 1 " RST $end
$var wire 32 O# MEM_DATA_OUT [31:0] $end
$scope module data_memory $end
$var wire 32 P# ADDRESS [31:0] $end
$var wire 1 ! CLK $end
$var wire 3 Q# FUNC3 [2:0] $end
$var wire 1 e MEM_READ $end
$var wire 1 # MEM_WRITE $end
$var wire 32 R# WRITE_DATA [31:0] $end
$var parameter 32 S# MEM_SIZE $end
$var reg 32 T# READ_DATA [31:0] $end
$upscope $end
$upscope $end
$scope module mem_wb $end
$var wire 1 ! CLK $end
$var wire 1 2 MEM_DATA_MEM_SELECT $end
$var wire 32 U# MEM_DATA_OUT [31:0] $end
$var wire 3 V# MEM_FUNC3 [2:0] $end
$var wire 32 W# MEM_JAL_SELECTED [31:0] $end
$var wire 5 X# MEM_RD [4:0] $end
$var wire 1 ( MEM_WRITE_ENABLE $end
$var wire 1 " RST $end
$var reg 1 3 WB_DATA_MEM_SELECT $end
$var reg 32 Y# WB_DATA_OUT [31:0] $end
$var reg 3 Z# WB_FUNC3 [2:0] $end
$var reg 32 [# WB_JAL_SELECTED [31:0] $end
$var reg 5 \# WB_RD [4:0] $end
$var reg 1 ) WB_WRITE_ENABLE $end
$upscope $end
$scope module next_pc_mux $end
$var wire 32 ]# IN0 [31:0] $end
$var wire 32 ^# IN1 [31:0] $end
$var wire 1 l SEL $end
$var wire 32 _# OUT [31:0] $end
$upscope $end
$scope module wb_stage $end
$var wire 1 ! CLK $end
$var wire 1 3 MEM_DATA_MEM_SELECT $end
$var wire 32 `# MEM_DATA_OUT [31:0] $end
$var wire 3 a# MEM_FUNC3 [2:0] $end
$var wire 32 b# MEM_JAL_SELECTED [31:0] $end
$var wire 5 c# MEM_RD [4:0] $end
$var wire 1 ) MEM_WRITE_ENABLE $end
$var wire 1 " RST $end
$var wire 5 d# WB_RD [4:0] $end
$var wire 1 $ WB_WRITE_ENABLE $end
$var wire 32 e# WB_WRITE_DATA [31:0] $end
$var wire 32 f# PROCESSED_DATA_OUT [31:0] $end
$scope module data_mem_select $end
$var wire 32 g# IN0 [31:0] $end
$var wire 1 3 SEL $end
$var wire 32 h# OUT [31:0] $end
$var wire 32 i# IN1 [31:0] $end
$upscope $end
$scope module load_processing_unit $end
$var wire 32 j# DATA_OUT [31:0] $end
$var wire 3 k# FUNC3 [2:0] $end
$var reg 32 l# PROCESSED_DATA_OUT [31:0] $end
$upscope $end
$upscope $end
$upscope $end
$upscope $end
$enddefinitions $end
$comment Show the parameter values. $end
$dumpall
b10000000000 S#
b10000000000 G#
$end
#0
$dumpvars
b0 l#
b0 k#
b0 j#
b0 i#
b0 h#
b0 g#
b0 f#
b0 e#
b0 d#
b0 c#
b0 b#
b0 a#
b0 `#
b100 _#
b0 ^#
b100 ]#
b0 \#
b0 [#
b0 Z#
b0 Y#
b0 X#
b0 W#
b0 V#
b0 U#
b0 T#
b0 R#
b0 Q#
b0 P#
b0 O#
b0 N#
b0 M#
b0 L#
b0 K#
b0 J#
b0 I#
b0 H#
b10011 F#
b0 E#
b0 D#
b100 C#
b100 B#
b10011 A#
b100 @#
b0 ?#
b100 >#
b100 =#
b0 <#
b0 ;#
b0 :#
b0 9#
b10011 8#
b0 7#
b100 6#
b100000 5#
b0 4#
b0 3#
b0 2#
b0 1#
b0 0#
b0 /#
b0 .#
b0 -#
b0 ,#
b0 +#
b0 *#
b0 )#
b0 (#
b0 '#
b10 &#
b0 %#
b0 $#
b0 ##
b0 "#
b10 !#
b0 ~"
b0 }"
b0 |"
b0 {"
b0 z"
b0 y"
b0 x"
b0 w"
b0 v"
b0 u"
b0 t"
b0 s"
b0 r"
b0 q"
b0 p"
b0 o"
b0 n"
b0 m"
b0 l"
b0 k"
b0 j"
b10 i"
b0 h"
b0 g"
b0 f"
b0 e"
b0 d"
b0 c"
b0 b"
b0 a"
b0 `"
b0 _"
b0 ^"
bx ]"
bx \"
b0 ["
b0 Z"
b0 Y"
b0 X"
b0 W"
b0 V"
b0 U"
bx T"
b0 S"
b0 R"
b0 Q"
bx P"
b0 O"
b0 N"
b0 M"
b0 L"
b0 K"
b0 J"
b0 I"
b0 H"
bx G"
b0 F"
b0 E"
bx D"
b0 C"
b0 B"
bx A"
b0 @"
b0 ?"
bx >"
b0 ="
b0 <"
bx ;"
b0 :"
b0 9"
bx 8"
b0 7"
b0 6"
bx 5"
b0 4"
b0 3"
b0 2"
bx 1"
bx 0"
b0 /"
bx ."
b0 -"
bx ,"
bx +"
bx *"
bx )"
b0 ("
bx '"
bx &"
b0 %"
b0 $"
b0 #"
b0 ""
b0 !"
b0 ~
b0 }
b0 |
b0 {
b0 z
b0 y
b0 x
b0 w
b0 v
b0 u
b0 t
b0 s
b0 r
b0 q
bx p
b0 o
b0 n
0m
0l
0k
0j
b0 i
b0 h
b0 g
bx f
0e
0d
0c
b0 b
b0 a
b0 `
b0 _
b0 ^
0]
0\
b0 [
b10 Z
0Y
0X
0W
0V
b0 U
b0 T
b0 S
b0 R
0Q
0P
0O
0N
0M
0L
0K
0J
0I
0H
b0 G
b0 F
0E
0D
b0 C
b0 B
b0 A
b0 @
b0 ?
b0 >
b0 =
b0 <
0;
0:
b0 9
b10011 8
b0 7
b100 6
b0 5
b0 4
03
02
b0 1
b0 0
b0 /
b0 .
b0 -
b0 ,
b0 +
b0 *
0)
0(
b100 '
b0 &
b0 %
0$
z#
1"
0!
$end
#1000
b0 f
b0 p
b0 &"
b0 ]"
b0 '"
b0 5"
b0 T"
b0 \"
b0 *"
b0 G"
b0 +"
b0 D"
b0 ."
b0 >"
b0 ,"
b0 A"
b0 1"
b0 8"
b0 0"
b0 ;"
#2000
b0 )"
b0 P"
#5000
b100000 5#
1!
#10000
0!
0"
#15000
b11 "#
b11 %#
b11 *#
1P
1:
b1000 '
b1000 @#
b1000 C#
b1000 _#
b10011 )#
b1000 6
b1000 6#
b1000 =#
b1000 ]#
b1000 >#
b1000 B#
b10010011 8
b10010011 8#
b10010011 A#
b10010011 F#
b100 4
b100 7#
b100 <#
b100 ?#
b100 D#
b100 E#
b100 F
b100 e"
b100 s"
b100 7
b100 w"
b100 ;#
b10011 9
b10011 y"
b10011 -#
b10011 9#
b10 [
b10 $"
b10 4"
b10 j"
1!
#20000
0!
#25000
b1 @
b1 d"
b1 |"
b1100 '
b1100 @#
b1100 C#
b1100 _#
1Q
1\
1;
b100 G
b100 ~
b100 ^"
b100 n"
b1000 F
b1000 e"
b1000 s"
b1000 7
b1000 w"
b1000 ;#
b10010011 9
b10010011 y"
b10010011 -#
b10010011 9#
b100 B
b100 f"
b100 r"
b100 5
b100 x"
b100 :#
b1100 6
b1100 6#
b1100 =#
b1100 ]#
b1100 >#
b1100 B#
b100000000000100010011 8
b100000000000100010011 8#
b100000000000100010011 A#
b100000000000100010011 F#
b1000 4
b1000 7#
b1000 <#
b1000 ?#
b1000 D#
b1000 E#
1!
#30000
0!
#35000
b10000 '
b10000 @#
b10000 C#
b10000 _#
b10 @
b10 d"
b10 |"
b1 0#
b1 R
b1 g"
b1 }"
b1 .#
b10000 6
b10000 6#
b10000 =#
b10000 ]#
b10000 >#
b10000 B#
b1000001000000110110011 8
b1000001000000110110011 8#
b1000001000000110110011 A#
b1000001000000110110011 F#
b1100 4
b1100 7#
b1100 <#
b1100 ?#
b1100 D#
b1100 E#
b1100 F
b1100 e"
b1100 s"
b1100 7
b1100 w"
b1100 ;#
b100000000000100010011 9
b100000000000100010011 y"
b100000000000100010011 -#
b100000000000100010011 9#
b1000 B
b1000 f"
b1000 r"
b1000 5
b1000 x"
b1000 :#
b1000 G
b1000 ~
b1000 ^"
b1000 n"
b1 `
b1 o
b1 w
b1 A
b1 }
b1 o"
b100 C
b100 !"
b100 `"
b100 m"
1(
1]
1!
#40000
0!
#45000
b1 ("
b1 Q"
b0 "#
b0 %#
b0 *#
0P
1:
b1 z
b1 2"
b1 6"
b1 9"
b1 <"
b1 ?"
b1 B"
b1 E"
b1 I"
b1 L"
b1 N"
b1 R"
b1 Y"
b11 @
b11 d"
b11 |"
b10 0#
b1 /#
b110011 )#
b10 R
b10 g"
b10 }"
b10 .#
b10100 '
b10100 @#
b10100 C#
b10100 _#
1$
1)
b1 *
b1 N#
b1 X#
b1 a
b1 t
b1 J#
b1100 G
b1100 ~
b1100 ^"
b1100 n"
b10 `
b10 o
b10 w
b10 A
b10 }
b10 o"
b1 S
b1 ""
b1 Z"
b1 l"
b1000 C
b1000 !"
b1000 `"
b1000 m"
b10000 F
b10000 e"
b10000 s"
b10000 7
b10000 w"
b10000 ;#
b1000001000000110110011 9
b1000001000000110110011 y"
b1000001000000110110011 -#
b1000001000000110110011 9#
b1100 B
b1100 f"
b1100 r"
b1100 5
b1100 x"
b1100 :#
b10100 6
b10100 6#
b10100 =#
b10100 ]#
b10100 >#
b10100 B#
b1100010000000100110011 8
b1100010000000100110011 8#
b1100010000000100110011 A#
b1100010000000100110011 F#
b10000 4
b10000 7#
b10000 <#
b10000 ?#
b10000 D#
b10000 E#
1!
#46000
b1 f
b1 p
b1 &"
b1 ]"
b1 '"
b1 5"
b1 T"
b1 \"
b1 1"
b1 8"
b1 ,"
b1 A"
b1 +"
b1 D"
b1 *"
b1 G"
#47000
b11111111111111111111111111111111 )"
b11111111111111111111111111111111 P"
#50000
0!
#55000
b0 ("
b0 Q"
b11000 '
b11000 @#
b11000 C#
b11000 _#
b10 @
b10 d"
b10 |"
b11 0#
b10 /#
b11 R
b11 g"
b11 }"
b11 .#
b0 z
b0 2"
b0 6"
b0 9"
b0 <"
b0 ?"
b0 B"
b0 E"
b0 I"
b0 L"
b0 N"
b0 R"
b0 Y"
b11000 6
b11000 6#
b11000 =#
b11000 ]#
b11000 >#
b11000 B#
b1000000010000011010000110000011 8
b1000000010000011010000110000011 8#
b1000000010000011010000110000011 A#
b1000000010000011010000110000011 F#
b10100 4
b10100 7#
b10100 <#
b10100 ?#
b10100 D#
b10100 E#
b10100 F
b10100 e"
b10100 s"
b10100 7
b10100 w"
b10100 ;#
b1100010000000100110011 9
b1100010000000100110011 y"
b1100010000000100110011 -#
b1100010000000100110011 9#
b10000 B
b10000 f"
b10000 r"
b10000 5
b10000 x"
b10000 :#
0Q
b10000 G
b10000 ~
b10000 ^"
b10000 n"
b11 `
b11 o
b11 w
b11 A
b11 }
b11 o"
b10 S
b10 ""
b10 Z"
b10 l"
b1100 C
b1100 !"
b1100 `"
b1100 m"
b10 *
b10 N#
b10 X#
b10 a
b10 t
b10 J#
b1 ,
b1 M#
b1 W#
b1 g
b1 s
b1 I#
b1 P#
b1 &
b1 u"
b1 1#
b1 d#
b1 +
b1 \#
b1 c#
1!
#56000
b0 f
b0 p
b0 &"
b0 ]"
b0 '"
b0 5"
b0 T"
b0 \"
b0 *"
b0 G"
b0 +"
b0 D"
b0 ,"
b0 A"
b0 1"
b0 8"
#57000
b0 )"
b0 P"
#60000
0!
#65000
1V
b1 "#
b1 %#
b1 *#
1J
1P
1:
b1 %
b1 t"
b1 2#
b1 e#
b1 h#
b10 T
b10 h"
b10 ~"
b11 @
b11 d"
b11 |"
b10 ##
b100000 $#
b100 0#
b11 /#
b100000 (#
b10 '#
b11 )#
b10000000100 R
b10000000100 g"
b10000000100 }"
b10000000100 .#
b11100 '
b11100 @#
b11100 C#
b11100 _#
b10 &
b10 u"
b10 1#
b10 d#
b10 +
b10 \#
b10 c#
b1 -
b1 [#
b1 b#
b1 g#
b11 *
b11 N#
b11 X#
b11 a
b11 t
b11 J#
b0 ,
b0 M#
b0 W#
b0 g
b0 s
b0 I#
b0 P#
b10100 G
b10100 ~
b10100 ^"
b10100 n"
b10 `
b10 o
b10 w
b10 A
b10 }
b10 o"
b11 S
b11 ""
b11 Z"
b11 l"
b10000 C
b10000 !"
b10000 `"
b10000 m"
b11000 F
b11000 e"
b11000 s"
b11000 7
b11000 w"
b11000 ;#
b1000000010000011010000110000011 9
b1000000010000011010000110000011 y"
b1000000010000011010000110000011 -#
b1000000010000011010000110000011 9#
b10100 B
b10100 f"
b10100 r"
b10100 5
b10100 x"
b10100 :#
b11100 6
b11100 6#
b11100 =#
b11100 ]#
b11100 >#
b11100 B#
bx 8
bx 8#
bx A#
bx F#
b11000 4
b11000 7#
b11000 <#
b11000 ?#
b11000 D#
b11000 E#
1!
#70000
0!
